SARFRAZ_FINAL
…
To see which state has the most senate elections/races I had to use the senate_races dataset and group everything by state. I did not need to group by year since the senate_races dataset displayed all the elections that occurred. After I grouped by state I then created a column race_count which counted how many times each state appeared on the senate_races dataset. This number shows me which state had the most races. I then arranged the senate_races column from greatest to least to see the state that had the most races.

#This was the code I used to find the number of races that had more than 2 senates
#competing against each other
senate_races <- two_party_vote %>%
  group_by(year,state) %>%
  summarize(candidate_count = n()) %>%
  filter(candidate_count>2)

## `summarise()` has grouped output by 'year'. You can override using the `.groups` argument.

#23 rows mean 23 races
senate_races

## # A tibble: 23 x 3
## # Groups:   year [14]
##     year state       candidate_count
##    <dbl> <chr>                 <int>
##  1  1978 ALABAMA                   3
##  2  1978 MINNESOTA                 4
##  3  1980 LOUISIANA                 4
##  4  1992 CALIFORNIA                4
##  5  1994 TENNESSEE                 4
##  6  1996 KANSAS                    4
##  7  1998 LOUISIANA                 4
##  8  2002 LOUISIANA                 8
##  9  2004 LOUISIANA                 5
## 10  2008 MISSISSIPPI               3
## # ... with 13 more rows
…
senate_votes_2012 <- updated_two_party_vote %>%
  filter(year == 2012) %>%
  select(year, state, party3, candidate_vote_percentage) %>%
  pivot_wider(names_from = party3, values_from = candidate_vote_percentage)

Question 10

To answer this question I used the senate_votes_2012 dataset that I created in question 9. I used the mutate() function to create the column demwin which records if democrats receive a higher vote than republicans. I did this through creating a ifelse() statement which displays one if the percentage of democrats votes were higher than republicans. If the democrat votes are lower than a zero is displayed.

NOTE: I am going to re-use this code in question 11 since I just need to add another column in the mutate() function. This is why I have not created an object to store the changes that I have made in this question. I will be creating the object in the next question.

senate_votes_2012 %>%
  mutate(demwin = ifelse((D>R),1,0))

## # A tibble: 33 x 5
##     year state             R     D demwin
##    <dbl> <chr>         <dbl> <dbl>  <dbl>
##  1  2012 ARIZONA        49.2  46.2      0
##  2  2012 CALIFORNIA     37.5  62.5      1
##  3  2012 CONNECTICUT    40.0  52.5      1
##  4  2012 DELAWARE       29.0  66.4      1
##  5  2012 FLORIDA        42.2  55.2      1
##  6  2012 HAWAII         36.8  61.6      1
##  7  2012 INDIANA        44.3  50.0      1
##  8  2012 MAINE          29.7  12.8      0
##  9  2012 MARYLAND       26.3  56.0      1
## 10  2012 MASSACHUSETTS  45.8  53.3      1
## # ... with 23 more rows
…
