SARFRAZ_HW4
…
grade6

grade7

grade8

The filter(!is.na(grade9) & !is.na(grade10) & !is.na(grade11) & !is.na(grade12)) command let me know that the grade9, 10 , 11 , and 12 columns were filled in when I was performing this function because I used the !is.na() function which gets the values in a column that have values.

Looking at this dataset let me know that the reason there were NA values for many columns is that each school taught certain grade levels. There are some cases (such as row 5) where all the values are filled and in these cases the school actually taught from a grade below grade 9 to grade 12 (for row 5 this would be from kindergarden to grade 12). Looking at this helped me formulate my filter function for my further lines that I am going to use.

NYC_2009_2010 %>% 
  filter(!is.na(grade9) & !is.na(grade10) & !is.na(grade11) & !is.na(grade12)) %>%
  transmute(prek,k,grade1,grade2,grade3,grade4,grade5,grade6,grade7,grade8,grade9,grade10,grade11,grade12) 

## # A tibble: 367 x 14
##     prek     k grade1 grade2 grade3 grade4 grade5 grade6 grade7 grade8 grade9
##    <dbl> <dbl>  <dbl>  <dbl>  <dbl>  <dbl>  <dbl>  <dbl>  <dbl>  <dbl>  <dbl>
##  1    NA    NA     NA     NA     NA     NA     NA     38     50     83    109
##  2    NA    NA     NA     NA     NA     NA     NA     NA     NA     NA    177
##  3    NA    NA     NA     NA     NA     NA     NA     68     69     72    100
##  4    NA    NA     NA     NA     NA     NA     NA     NA     NA     NA    103
##  5    NA   119    101    118    109     77     63    137    146    111    145
##  6    NA    NA     NA     NA     NA     NA     NA     NA     NA     NA      6
##  7    NA    NA     NA     NA     NA     NA     NA     NA     NA     NA    148
##  8    NA    NA     NA     NA     NA     NA     NA     NA     NA     29     47
##  9    NA    NA     NA     NA     NA     NA     NA     NA     NA     NA    127
## 10    NA    NA     NA     NA     NA     NA     NA     NA     NA     NA     84
## # ... with 357 more rows, and 3 more variables: grade10 <dbl>, grade11 <dbl>,
## #   grade12 <dbl>

NA values in the grade9 | grade10 | grade11 | grade12 column

There are also some NA values in the grade9 | grade10 | grade11 | grade12 columns. I used the following statement to reach this conclusion. Knowing this helped me realize that there are some high schools that have missing data and I need to keep this in mind when performing my filter to only include high schools.

NYC_2009_2010 %>% 
  filter(is.na(grade9) | is.na(grade10)| is.na(grade11) | is.na(grade12)) %>%
  transmute(grade7,grade8,grade9,grade10,grade11,grade12) %>%
  arrange(desc(grade10))

## # A tibble: 1,108 x 6
##    grade7 grade8 grade9 grade10 grade11 grade12
##     <dbl>  <dbl>  <dbl>   <dbl>   <dbl>   <dbl>
##  1     NA     NA     NA     395      NA      NA
##  2     NA     NA     NA     259     200      92
##  3     NA     NA     NA     198      82      83
##  4     NA     NA     NA     184     312     232
##  5     NA     NA     NA     151      39       9
##  6     NA     NA     NA     150      NA      NA
##  7     NA     NA     81     135      NA      NA
##  8     NA     NA     95     134     115      NA
##  9     NA     NA     NA     127     108     188
## 10     NA     NA    150     126      NA      NA
## # ... with 1,098 more rows
…
